24 Intro to Functions | Introduction to Computing With Data
…
Most of the things we do in R is via calling some function.

Sometimes, however, there’s no function to do what we want to achieve.

When that’s the case, you will want to write your own functions.

So far you’ve been using a number of functions in R. Now it’s time to see
how you can create and use your own functions.

24.1 Motivation

Consider the data set starwars that comes in the package "dplyr"

starwars
#> # A tibble: 87 x 13
#>    name  height  mass hair_color skin_color eye_color birth_year gender
#>    <chr>  <int> <dbl> <chr>      <chr>      <chr>          <dbl> <chr> 
#>  1 Luke…    172    77 blond      fair       blue            19   male  
#>  2 C-3PO    167    75 <NA>       gold       yellow         112   <NA>  
#>  3 R2-D2     96    32 <NA>       white, bl… red             33   <NA>  
#>  4 Dart…    202   136 none       white      yellow          41.9 male  
#>  5 Leia…    150    49 brown      light      brown           19   female
#>  6 Owen…    178   120 brown, gr… light      blue            52   male  
#>  7 Beru…    165    75 brown      light      blue            47   female
#>  8 R5-D4     97    32 <NA>       white, red red             NA   <NA>  
#>  9 Bigg…    183    84 black      light      brown           24   male  
#> 10 Obi-…    182    77 auburn, w… fair       blue-gray       57   male  
#> # … with 77 more rows, and 5 more variables: homeworld <chr>, species <chr>,
#> #   films <list>, vehicles <list>, starships <list>
…
