10 Exploratory Data Analysis with ggplot2 | Computing With Data
…
# (you should include this command in your Rmd file, or other source files)
library(ggplot2)
library(dplyr)   

10.1.1 Atlantic Hurricane Data

In the previous chapter, we began exploration of Atlantic Hurricane Data.
The data set comes in the R package "dplyr" under the name storms:

# data from package "dplyr"
storms
#> # A tibble: 10,010 x 13
#>    name   year month   day  hour   lat  long status category  wind pressure
#>    <chr> <dbl> <dbl> <int> <dbl> <dbl> <dbl> <chr>  <ord>    <int>    <int>
#>  1 Amy    1975     6    27     0  27.5 -79   tropi… -1          25     1013
#>  2 Amy    1975     6    27     6  28.5 -79   tropi… -1          25     1013
#>  3 Amy    1975     6    27    12  29.5 -79   tropi… -1          25     1013
#>  4 Amy    1975     6    27    18  30.5 -79   tropi… -1          25     1013
#>  5 Amy    1975     6    28     0  31.5 -78.8 tropi… -1          25     1012
#>  6 Amy    1975     6    28     6  32.4 -78.7 tropi… -1          25     1012
#>  7 Amy    1975     6    28    12  33.3 -78   tropi… -1          25     1011
#>  8 Amy    1975     6    28    18  34   -77   tropi… -1          30     1006
#>  9 Amy    1975     6    29     0  34.4 -75.8 tropi… 0           35     1004
#> 10 Amy    1975     6    29     6  34   -74.8 tropi… 0           40     1002
#> # … with 10,000 more rows, and 2 more variables: ts_diameter <dbl>,
#> #   hu_diameter <dbl>
…
Think about the columns that we need to select to find the number of storms per
year. We obviously need year, but this column alone it’s not enough because
for any given storm we have multiple records with the same year. Therefore, we
also need column name.

For illustration purposes, we are going to build the data manipulation pipeline
step by step. As you get more comfortable with "dplyr" and other functions,
you won’t have the need to disect every single command.
A first step is to select() variables year and name:

select(storms, year, name)
#> # A tibble: 10,010 x 2
#>     year name 
#>    <dbl> <chr>
#>  1  1975 Amy  
#>  2  1975 Amy  
#>  3  1975 Amy  
#>  4  1975 Amy  
#>  5  1975 Amy  
#>  6  1975 Amy  
#>  7  1975 Amy  
#>  8  1975 Amy  
#>  9  1975 Amy  
#> 10  1975 Amy  
#> # … with 10,000 more rows

Next, we need to group_by() year. At first glance, the previous output and
the output below seem identical. But notice the tiny difference: the output
below has a second line of text with some relevant information:
# Groups:   year [41], telling us that the values are grouped by year.

group_by(select(storms, year, name), year)
#> # A tibble: 10,010 x 2
#> # Groups:   year [41]
#>     year name 
#>    <dbl> <chr>
#>  1  1975 Amy  
#>  2  1975 Amy  
#>  3  1975 Amy  
#>  4  1975 Amy  
#>  5  1975 Amy  
#>  6  1975 Amy  
#>  7  1975 Amy  
#>  8  1975 Amy  
#>  9  1975 Amy  
#> 10  1975 Amy  
#> # … with 10,000 more rows

Then, we identify the distinct() values (combination of year-name):

distinct(group_by(select(storms, year, name), year))
#> # A tibble: 426 x 2
#> # Groups:   year [41]
#>     year name    
#>    <dbl> <chr>   
#>  1  1975 Amy     
#>  2  1975 Caroline
#>  3  1975 Doris   
#>  4  1976 Belle   
#>  5  1976 Gloria  
#>  6  1977 Anita   
#>  7  1977 Clara   
#>  8  1977 Evelyn  
#>  9  1978 Amelia  
#> 10  1978 Bess    
#> # … with 416 more rows

For convenience purposes, let’s assign this table into its own object,
which we can call storms_year_name

storms_year_name <- distinct(group_by(select(storms, year, name), year))

Finally, we need to count() how many storms are in each year:

count(storms_year_name, year)
#> # A tibble: 41 x 2
#> # Groups:   year [41]
#>     year     n
#>    <dbl> <int>
#>  1  1975     3
#>  2  1976     2
#>  3  1977     3
#>  4  1978     4
#>  5  1979     7
#>  6  1980     8
#>  7  1981     5
#>  8  1982     5
#>  9  1983     4
#> 10  1984    10
#> # … with 31 more rows

All the previous commands can be assembled together with various embedded lines
of code:

storms_per_year <- count(
  distinct(
    group_by(
      select(storms, year, name), 
      year)
    )
  )

storms_per_year
#> # A tibble: 41 x 2
#> # Groups:   year [41]
#>     year     n
#>    <dbl> <int>
#>  1  1975     3
#>  2  1976     2
#>  3  1977     3
#>  4  1978     4
#>  5  1979     7
#>  6  1980     8
#>  7  1981     5
#>  8  1982     5
#>  9  1983     4
#> 10  1984    10
#> # … with 31 more rows
…
By looking at the chart, there are some fairly tall bars. Although it’s hard
to see exactly which years have a considerably large number of storms,
eyeballing things out it seems that around 1995, 2003, 2005, and 2010 there are
20 or more storms. We can find the actual answer by using arrange(),
specifying the counts to be shown in descending order—with desc():

arrange(storms_per_year, desc(n))
#> # A tibble: 41 x 2
#> # Groups:   year [41]
#>     year     n
#>    <dbl> <int>
#>  1  1995    21
#>  2  2005    21
#>  3  2003    20
#>  4  2010    20
#>  5  2001    17
#>  6  2012    17
#>  7  2000    16
#>  8  2007    16
#>  9  2011    15
#> 10  2008    14
#> # … with 31 more rows

As you can tell, in the 41-year period from 1975 to 2015, there are two years,
1995 and 2005, with a maximum number of storms equal to 21.

10.2.3 Storms in 1975

Like we did in the previous chapter, let’s play a bit with those storms from
1975. More specifically, let’s visually explore the values of wind and
pressure.

storms75 <- filter(storms, year == 1975)
storms75
#> # A tibble: 86 x 13
#>    name   year month   day  hour   lat  long status category  wind pressure
#>    <chr> <dbl> <dbl> <int> <dbl> <dbl> <dbl> <chr>  <ord>    <int>    <int>
#>  1 Amy    1975     6    27     0  27.5 -79   tropi… -1          25     1013
#>  2 Amy    1975     6    27     6  28.5 -79   tropi… -1          25     1013
#>  3 Amy    1975     6    27    12  29.5 -79   tropi… -1          25     1013
#>  4 Amy    1975     6    27    18  30.5 -79   tropi… -1          25     1013
#>  5 Amy    1975     6    28     0  31.5 -78.8 tropi… -1          25     1012
#>  6 Amy    1975     6    28     6  32.4 -78.7 tropi… -1          25     1012
#>  7 Amy    1975     6    28    12  33.3 -78   tropi… -1          25     1011
#>  8 Amy    1975     6    28    18  34   -77   tropi… -1          30     1006
#>  9 Amy    1975     6    29     0  34.4 -75.8 tropi… 0           35     1004
#> 10 Amy    1975     6    29     6  34   -74.8 tropi… 0           40     1002
#> # … with 76 more rows, and 2 more variables: ts_diameter <dbl>,
#> #   hu_diameter <dbl>
…
In this command we are faceting by name, and this does is to create facets,
one for each category of name. In other words, we get separated density
curves, one for each storm. The syntax inside facet_wrap() uses the tilde
~ operator which is the formula operator in R. Basically, the command
~ name tells ggplot() to create facets based on the values of name.

10.2.4 Visual Inspection of Amy 1975

As we did it in the previous chapter, let’s focus on storm Amy in 1975,
subsetting storms75 to filter out just the rows of Amy into its own table

amy75 <- filter(storms75, name == "Amy")
amy75
#> # A tibble: 30 x 13
#>    name   year month   day  hour   lat  long status category  wind pressure
#>    <chr> <dbl> <dbl> <int> <dbl> <dbl> <dbl> <chr>  <ord>    <int>    <int>
#>  1 Amy    1975     6    27     0  27.5 -79   tropi… -1          25     1013
#>  2 Amy    1975     6    27     6  28.5 -79   tropi… -1          25     1013
#>  3 Amy    1975     6    27    12  29.5 -79   tropi… -1          25     1013
#>  4 Amy    1975     6    27    18  30.5 -79   tropi… -1          25     1013
#>  5 Amy    1975     6    28     0  31.5 -78.8 tropi… -1          25     1012
#>  6 Amy    1975     6    28     6  32.4 -78.7 tropi… -1          25     1012
#>  7 Amy    1975     6    28    12  33.3 -78   tropi… -1          25     1011
#>  8 Amy    1975     6    28    18  34   -77   tropi… -1          30     1006
#>  9 Amy    1975     6    29     0  34.4 -75.8 tropi… 0           35     1004
#> 10 Amy    1975     6    29     6  34   -74.8 tropi… 0           40     1002
#> # … with 20 more rows, and 2 more variables: ts_diameter <dbl>,
#> #   hu_diameter <dbl>
…
